R для антиковедов Модуль 3
…
<img src="M3L1_Slides_files/figure-html/plot-1.png" width="100%" />

---
# Наиболее частое значение

```r
sent.length %>% count(sent.l, sort = TRUE)
```

```
## # A tibble: 137 × 2
##    sent.l     n
##     <dbl> <int>
##  1      2  3520
##  2      1  2661
##  3      3  2563
##  4      4  1658
##  5      6  1559
##  6      7  1557
##  7      5  1549
##  8      8  1518
##  9      9  1471
## 10     10  1375
## # … with 127 more rows
```
…
