R для антиковедов Модуль 3
…
.footnote[Фрэнк Уилкоксон (1892-1965)]
]
---

# Частотность артикля у Платона и Аристотеля

.pull-left[

```r
section.words.ar
```

```
## # A tibble: 3,137 × 2
##    section     n
##      <dbl> <int>
##  1       1     6
##  2       2    17
##  3       3    11
##  4       4    16
##  5       5    13
##  6       6    12
##  7       7    14
##  8       8    14
##  9       9    11
## 10      10    11
## # … with 3,127 more rows
```
]

.pull-right[

```r
section.words.pl
```

```
## # A tibble: 4,802 × 2
##    section     n
##      <dbl> <int>
##  1       1     4
##  2       2     5
##  3       3     8
##  4       4     6
##  5       5     9
##  6       6     6
##  7       7     6
##  8       8     5
##  9       9     7
## 10      10     8
## # … with 4,792 more rows
```
…
